[{"id":1,"fecha":"4/2/2019","importe":96,"latitud":49.6246813,"longitud":19.1833654},
{"id":2,"fecha":"9/27/2018","importe":28,"latitud":17.9567646,"longitud":-102.1943485},
{"id":3,"fecha":"12/18/2018","importe":99,"latitud":9.452849,"longitud":-75.4391349},
{"id":4,"fecha":"10/5/2018","importe":80,"latitud":33.3487793,"longitud":130.8188513},
{"id":5,"fecha":"2/7/2019","importe":29,"latitud":21.9588282,"longitud":96.0891032},
{"id":6,"fecha":"2/18/2019","importe":53,"latitud":34.2818498,"longitud":109.002843},
{"id":7,"fecha":"1/17/2019","importe":54,"latitud":-25.6962731,"longitud":28.7023068},
{"id":8,"fecha":"7/28/2018","importe":99,"latitud":14.6004472,"longitud":121.030802},
{"id":9,"fecha":"1/30/2019","importe":46,"latitud":56.9713872,"longitud":61.4210476},
{"id":10,"fecha":"8/10/2018","importe":94,"latitud":14.5155311,"longitud":120.9812921},
{"id":11,"fecha":"12/26/2018","importe":75,"latitud":15.2113128,"longitud":120.0278872},
{"id":12,"fecha":"2/27/2019","importe":73,"latitud":31.717564,"longitud":119.382381},
{"id":13,"fecha":"4/4/2019","importe":39,"latitud":3.2873127,"longitud":30.9403023},
{"id":14,"fecha":"4/7/2019","importe":38,"latitud":50.0901553,"longitud":14.5640162},
{"id":15,"fecha":"5/23/2018","importe":5,"latitud":-11.9007479,"longitud":-40.7564002},
{"id":16,"fecha":"2/2/2019","importe":92,"latitud":-37.9361202,"longitud":-57.5552203},
{"id":17,"fecha":"12/12/2018","importe":42,"latitud":7.5143959,"longitud":4.5232397},
{"id":18,"fecha":"8/12/2018","importe":95,"latitud":-15.8003597,"longitud":-70.3435088},
{"id":19,"fecha":"11/26/2018","importe":87,"latitud":-1.575187,"longitud":9.2591571},
{"id":20,"fecha":"2/18/2019","importe":75,"latitud":53.2987724,"longitud":-6.366762},
{"id":21,"fecha":"7/11/2018","importe":11,"latitud":22.183206,"longitud":112.305145},
{"id":22,"fecha":"3/29/2019","importe":85,"latitud":-8.0884404,"longitud":-79.0872788},
{"id":23,"fecha":"12/24/2018","importe":20,"latitud":-21.2028539,"longitud":-50.4536793},
{"id":24,"fecha":"3/2/2019","importe":37,"latitud":48.9359551,"longitud":89.1366848},
{"id":25,"fecha":"5/30/2018","importe":75,"latitud":62.153018,"longitud":-7.1475829},
{"id":26,"fecha":"8/6/2018","importe":65,"latitud":-6.143977,"longitud":106.3993658},
{"id":27,"fecha":"11/3/2018","importe":80,"latitud":36.130754,"longitud":107.497706},
{"id":28,"fecha":"12/9/2018","importe":51,"latitud":-4.805035,"longitud":119.5571677},
{"id":29,"fecha":"4/21/2019","importe":12,"latitud":16.597659,"longitud":120.493376},
{"id":30,"fecha":"12/20/2018","importe":48,"latitud":41.117245,"longitud":121.128279},
{"id":31,"fecha":"12/4/2018","importe":47,"latitud":41.9310884,"longitud":19.2147632},
{"id":32,"fecha":"4/12/2019","importe":59,"latitud":50.2435433,"longitud":18.2914811},
{"id":33,"fecha":"12/31/2018","importe":90,"latitud":30.221809,"longitud":121.399164},
{"id":34,"fecha":"1/6/2019","importe":3,"latitud":8.9438393,"longitud":125.5403208},
{"id":35,"fecha":"7/28/2018","importe":1,"latitud":53.8964099,"longitud":16.8352157},
{"id":36,"fecha":"6/29/2018","importe":16,"latitud":39.0745039,"longitud":-84.33211},
{"id":37,"fecha":"2/8/2019","importe":78,"latitud":-9.1896778,"longitud":-77.7130151},
{"id":38,"fecha":"2/5/2019","importe":90,"latitud":13.7785321,"longitud":100.681544},
{"id":39,"fecha":"3/29/2019","importe":62,"latitud":53.9303755,"longitud":22.192721},
{"id":40,"fecha":"3/30/2019","importe":81,"latitud":-7.3897541,"longitud":108.8640607},
{"id":41,"fecha":"12/15/2018","importe":37,"latitud":-9.548008,"longitud":-76.66935},
{"id":42,"fecha":"10/11/2018","importe":56,"latitud":55.6949907,"longitud":37.7470313},
{"id":43,"fecha":"8/15/2018","importe":64,"latitud":39.7601611,"longitud":116.3169416},
{"id":44,"fecha":"12/9/2018","importe":78,"latitud":37.54,"longitud":-77.45},
{"id":45,"fecha":"1/8/2019","importe":68,"latitud":30.912962,"longitud":75.854942},
{"id":46,"fecha":"11/26/2018","importe":93,"latitud":30.793647,"longitud":106.074668},
{"id":47,"fecha":"6/12/2018","importe":21,"latitud":56.2507818,"longitud":12.9929582},
{"id":48,"fecha":"1/26/2019","importe":27,"latitud":32.700367,"longitud":67.303116},
{"id":49,"fecha":"8/26/2018","importe":69,"latitud":25.423994,"longitud":119.038321},
{"id":50,"fecha":"2/27/2019","importe":45,"latitud":-7.821926,"longitud":112.018032},
{"id":51,"fecha":"5/5/2019","importe":4,"latitud":55.6828987,"longitud":12.5786568},
{"id":52,"fecha":"6/1/2018","importe":17,"latitud":41.6613587,"longitud":-91.4918235},
{"id":53,"fecha":"2/12/2019","importe":62,"latitud":17.0437082,"longitud":95.6431662},
{"id":54,"fecha":"7/25/2018","importe":70,"latitud":43.4945737,"longitud":5.8978018},
{"id":55,"fecha":"2/13/2019","importe":38,"latitud":18.2904086,"longitud":121.4356759},
{"id":56,"fecha":"12/5/2018","importe":58,"latitud":-12.7902832,"longitud":45.1050487},
{"id":57,"fecha":"5/12/2018","importe":48,"latitud":-23.4114953,"longitud":30.1560436},
{"id":58,"fecha":"9/4/2018","importe":36,"latitud":-14.3175114,"longitud":-69.4678265},
{"id":59,"fecha":"10/19/2018","importe":33,"latitud":32.890479,"longitud":115.814504},
{"id":60,"fecha":"10/22/2018","importe":57,"latitud":-28.7477963,"longitud":-49.4745059},
{"id":61,"fecha":"6/15/2018","importe":75,"latitud":41.3815799,"longitud":19.6981547},
{"id":62,"fecha":"5/1/2019","importe":98,"latitud":-3.6553932,"longitud":128.1907723},
{"id":63,"fecha":"11/16/2018","importe":55,"latitud":38.133032,"longitud":-85.8963964},
{"id":64,"fecha":"10/28/2018","importe":46,"latitud":27.786996,"longitud":120.091498},
{"id":65,"fecha":"10/21/2018","importe":99,"latitud":49.726378,"longitud":6.1992834},
{"id":66,"fecha":"11/18/2018","importe":21,"latitud":59.4050955,"longitud":17.9551008},
{"id":67,"fecha":"5/21/2018","importe":2,"latitud":39.9947462,"longitud":116.3397725},
{"id":68,"fecha":"7/27/2018","importe":62,"latitud":48.7865463,"longitud":2.054647},
{"id":69,"fecha":"2/1/2019","importe":64,"latitud":40.2861415,"longitud":23.390846},
{"id":70,"fecha":"10/22/2018","importe":57,"latitud":30.291745,"longitud":122.202207},
{"id":71,"fecha":"8/16/2018","importe":64,"latitud":"46.07034","longitud":"-72.81125"},
{"id":72,"fecha":"8/11/2018","importe":91,"latitud":24.326292,"longitud":109.428608},
{"id":73,"fecha":"11/5/2018","importe":27,"latitud":27.386227,"longitud":89.2776017},
{"id":74,"fecha":"8/5/2018","importe":10,"latitud":22.9246742,"longitud":96.5063095},
{"id":75,"fecha":"9/15/2018","importe":95,"latitud":24.412155,"longitud":115.744112},
{"id":76,"fecha":"12/10/2018","importe":89,"latitud":52.7765719,"longitud":21.5903277},
{"id":77,"fecha":"12/18/2018","importe":83,"latitud":40.44,"longitud":-79.98},
{"id":78,"fecha":"6/9/2018","importe":50,"latitud":"-6.8787","longitud":"113.9035"},
{"id":79,"fecha":"1/30/2019","importe":42,"latitud":11.4702151,"longitud":108.9145675},
{"id":80,"fecha":"4/15/2019","importe":61,"latitud":9.0039801,"longitud":-75.3645369},
{"id":81,"fecha":"10/9/2018","importe":22,"latitud":28.023893,"longitud":116.263188},
{"id":82,"fecha":"9/7/2018","importe":90,"latitud":-7.056066,"longitud":108.4780523},
{"id":83,"fecha":"9/16/2018","importe":50,"latitud":-7.0827518,"longitud":108.5166348},
{"id":84,"fecha":"10/6/2018","importe":63,"latitud":-3.6964444,"longitud":103.3876116},
{"id":85,"fecha":"2/11/2019","importe":54,"latitud":-42.7592642,"longitud":-65.0612637},
{"id":86,"fecha":"7/30/2018","importe":59,"latitud":22.454651,"longitud":109.682148},
{"id":87,"fecha":"11/21/2018","importe":80,"latitud":38.7726507,"longitud":-7.502314},
{"id":88,"fecha":"11/12/2018","importe":82,"latitud":64.9142998,"longitud":77.7663297},
{"id":89,"fecha":"11/8/2018","importe":94,"latitud":"7.3488","longitud":"125.7782"},
{"id":90,"fecha":"1/31/2019","importe":21,"latitud":5.205118,"longitud":-74.737081},
{"id":91,"fecha":"6/15/2018","importe":87,"latitud":22.75839,"longitud":108.487368},
{"id":92,"fecha":"8/25/2018","importe":17,"latitud":43.1654615,"longitud":69.9222782},
{"id":93,"fecha":"10/19/2018","importe":8,"latitud":35.547715,"longitud":103.506415},
{"id":94,"fecha":"8/2/2018","importe":25,"latitud":31.9750078,"longitud":73.6032755},
{"id":95,"fecha":"6/26/2018","importe":54,"latitud":38.428549,"longitud":140.3584644},
{"id":96,"fecha":"6/16/2018","importe":45,"latitud":31.820591,"longitud":117.227219},
{"id":97,"fecha":"8/7/2018","importe":84,"latitud":31.528143,"longitud":62.7897132},
{"id":98,"fecha":"6/5/2018","importe":87,"latitud":34.293171,"longitud":108.946651},
{"id":99,"fecha":"8/27/2018","importe":9,"latitud":14.6291821,"longitud":120.9956398},
{"id":100,"fecha":"4/16/2019","importe":44,"latitud":2.579401,"longitud":-77.8138553}]
